(kicad_symbol_lib (version 20201005) (generator kicad_symbol_editor)
  (symbol "ADP5585ACPZ" (pin_names (offset 1.016)) (in_bom yes) (on_board yes)
    (property "Reference" "U" (id 0) (at 12.7 20.32 0)
      (effects (font (size 1.27 1.27)))
    )
    (property "Value" "ADP5585ACPZ" (id 1) (at -5.08 20.32 0)
      (effects (font (size 1.27 1.27)))
    )
    (property "Footprint" "" (id 2) (at -5.08 20.32 0)
      (effects (font (size 1.27 1.27)) hide)
    )
    (property "Datasheet" "" (id 3) (at -5.08 20.32 0)
      (effects (font (size 1.27 1.27)) hide)
    )
    (symbol "ADP5585ACPZ_0_1"
      (rectangle (start 13.97 -22.86) (end -12.7 19.05)
        (stroke (width 0)) (fill (type background))
      )
    )
    (symbol "ADP5585ACPZ_1_1"
      (pin bidirectional line (at 16.51 1.27 180) (length 2.54)
        (name "GPIO5" (effects (font (size 1.27 1.27))))
        (number "1" (effects (font (size 1.27 1.27))))
      )
      (pin bidirectional line (at 16.51 -17.78 180) (length 2.54)
        (name "GPIO11" (effects (font (size 1.27 1.27))))
        (number "10" (effects (font (size 1.27 1.27))))
      )
      (pin input inverted (at -15.24 -5.08 0) (length 2.54)
        (name "RST" (effects (font (size 1.27 1.27))))
        (number "11" (effects (font (size 1.27 1.27))))
      )
      (pin power_in line (at -15.24 16.51 0) (length 2.54)
        (name "VDD" (effects (font (size 1.27 1.27))))
        (number "12" (effects (font (size 1.27 1.27))))
      )
      (pin power_in line (at -1.27 -25.4 90) (length 2.54)
        (name "GND" (effects (font (size 1.27 1.27))))
        (number "13" (effects (font (size 1.27 1.27))))
      )
      (pin bidirectional line (at -15.24 8.89 0) (length 2.54)
        (name "SDA" (effects (font (size 1.27 1.27))))
        (number "14" (effects (font (size 1.27 1.27))))
      )
      (pin input line (at -15.24 5.08 0) (length 2.54)
        (name "SCL" (effects (font (size 1.27 1.27))))
        (number "15" (effects (font (size 1.27 1.27))))
      )
      (pin open_collector inverted (at -15.24 -16.51 0) (length 2.54)
        (name "INT" (effects (font (size 1.27 1.27))))
        (number "16" (effects (font (size 1.27 1.27))))
      )
      (pin passive line (at 2.54 -25.4 90) (length 2.54)
        (name "EP" (effects (font (size 1.27 1.27))))
        (number "17" (effects (font (size 1.27 1.27))))
      )
      (pin bidirectional line (at 16.51 5.08 180) (length 2.54)
        (name "GPIO4" (effects (font (size 1.27 1.27))))
        (number "2" (effects (font (size 1.27 1.27))))
      )
      (pin bidirectional line (at 16.51 8.89 180) (length 2.54)
        (name "GPIO3" (effects (font (size 1.27 1.27))))
        (number "3" (effects (font (size 1.27 1.27))))
      )
      (pin bidirectional line (at 16.51 12.7 180) (length 2.54)
        (name "GPIO2" (effects (font (size 1.27 1.27))))
        (number "4" (effects (font (size 1.27 1.27))))
      )
      (pin bidirectional line (at 16.51 16.51 180) (length 2.54)
        (name "GPIO1" (effects (font (size 1.27 1.27))))
        (number "5" (effects (font (size 1.27 1.27))))
      )
      (pin bidirectional line (at 16.51 -2.54 180) (length 2.54)
        (name "GPIO7" (effects (font (size 1.27 1.27))))
        (number "6" (effects (font (size 1.27 1.27))))
      )
      (pin bidirectional line (at 16.51 -6.35 180) (length 2.54)
        (name "GPIO8" (effects (font (size 1.27 1.27))))
        (number "7" (effects (font (size 1.27 1.27))))
      )
      (pin bidirectional line (at 16.51 -10.16 180) (length 2.54)
        (name "GPIO9" (effects (font (size 1.27 1.27))))
        (number "8" (effects (font (size 1.27 1.27))))
      )
      (pin bidirectional line (at 16.51 -13.97 180) (length 2.54)
        (name "GPIO10" (effects (font (size 1.27 1.27))))
        (number "9" (effects (font (size 1.27 1.27))))
      )
    )
  )
  (symbol "ADuM1250" (pin_names (offset 1.016)) (in_bom yes) (on_board yes)
    (property "Reference" "U" (id 0) (at 12.7 11.43 0)
      (effects (font (size 1.27 1.27)))
    )
    (property "Value" "ADuM1250" (id 1) (at -8.89 11.43 0)
      (effects (font (size 1.27 1.27)))
    )
    (property "Footprint" "" (id 2) (at -16.51 20.32 0)
      (effects (font (size 1.27 1.27)) hide)
    )
    (property "Datasheet" "" (id 3) (at -16.51 20.32 0)
      (effects (font (size 1.27 1.27)) hide)
    )
    (symbol "ADuM1250_0_0"
      (text "Isolation" (at 0 0 900)
        (effects (font (size 1.27 1.27)))
      )
    )
    (symbol "ADuM1250_0_1"
      (circle (center 6.35 2.54) (radius 0.1778) (stroke (width 0)) (fill (type outline)))
      (rectangle (start -13.97 10.16) (end 13.97 -10.16)
        (stroke (width 0)) (fill (type background))
      )
      (polyline
        (pts
          (xy -5.08 2.54)
          (xy -7.62 2.54)
        )
        (stroke (width 0)) (fill (type none))
      )
      (polyline
        (pts
          (xy -1.27 -2.54)
          (xy -7.62 -2.54)
        )
        (stroke (width 0)) (fill (type none))
      )
      (polyline
        (pts
          (xy -1.27 10.16)
          (xy -1.27 -10.16)
        )
        (stroke (width 0)) (fill (type none))
      )
      (polyline
        (pts
          (xy 1.27 -10.16)
          (xy 1.27 10.16)
        )
        (stroke (width 0)) (fill (type none))
      )
      (polyline
        (pts
          (xy 5.08 -2.54)
          (xy 7.62 -2.54)
        )
        (stroke (width 0)) (fill (type none))
      )
      (polyline
        (pts
          (xy 6.35 2.54)
          (xy 1.27 2.54)
        )
        (stroke (width 0)) (fill (type none))
      )
      (polyline
        (pts
          (xy -6.35 -2.54)
          (xy -6.35 -6.35)
          (xy -5.08 -6.35)
        )
        (stroke (width 0)) (fill (type none))
      )
      (polyline
        (pts
          (xy -6.35 2.54)
          (xy -6.35 6.35)
          (xy -1.27 6.35)
        )
        (stroke (width 0)) (fill (type none))
      )
      (polyline
        (pts
          (xy 1.27 -6.35)
          (xy 6.35 -6.35)
          (xy 6.35 -2.54)
        )
        (stroke (width 0)) (fill (type none))
      )
      (polyline
        (pts
          (xy 3.81 7.112)
          (xy 3.81 5.842)
          (xy 4.318 5.334)
        )
        (stroke (width 0)) (fill (type none))
      )
      (polyline
        (pts
          (xy 4.064 5.588)
          (xy 4.064 6.858)
          (xy 3.556 7.366)
        )
        (stroke (width 0)) (fill (type none))
      )
      (polyline
        (pts
          (xy 5.08 6.35)
          (xy 6.35 6.35)
          (xy 6.35 2.54)
          (xy 7.62 2.54)
        )
        (stroke (width 0)) (fill (type none))
      )
      (polyline
        (pts
          (xy 5.08 8.89)
          (xy 5.08 3.81)
          (xy 1.27 6.35)
          (xy 5.08 8.89)
        )
        (stroke (width 0)) (fill (type none))
      )
    )
    (symbol "ADuM1250_1_1"
      (circle (center -6.35 -2.54) (radius 0.1778) (stroke (width 0)) (fill (type outline)))
      (circle (center -6.35 2.54) (radius 0.1778) (stroke (width 0)) (fill (type outline)))
      (circle (center 6.35 -2.54) (radius 0.1778) (stroke (width 0)) (fill (type outline)))
      (polyline
        (pts
          (xy -4.064 -7.112)
          (xy -4.064 -5.842)
          (xy -3.556 -5.334)
        )
        (stroke (width 0)) (fill (type none))
      )
      (polyline
        (pts
          (xy -4.064 1.778)
          (xy -4.064 3.048)
          (xy -3.556 3.556)
        )
        (stroke (width 0)) (fill (type none))
      )
      (polyline
        (pts
          (xy -3.81 -5.588)
          (xy -3.81 -6.858)
          (xy -4.318 -7.366)
        )
        (stroke (width 0)) (fill (type none))
      )
      (polyline
        (pts
          (xy -3.81 3.302)
          (xy -3.81 2.032)
          (xy -4.318 1.524)
        )
        (stroke (width 0)) (fill (type none))
      )
      (polyline
        (pts
          (xy 3.81 -1.778)
          (xy 3.81 -3.048)
          (xy 4.318 -3.556)
        )
        (stroke (width 0)) (fill (type none))
      )
      (polyline
        (pts
          (xy 4.064 -3.302)
          (xy 4.064 -2.032)
          (xy 3.556 -1.524)
        )
        (stroke (width 0)) (fill (type none))
      )
      (polyline
        (pts
          (xy -5.08 -3.81)
          (xy -5.08 -8.89)
          (xy -1.27 -6.35)
          (xy -5.08 -3.81)
        )
        (stroke (width 0)) (fill (type none))
      )
      (polyline
        (pts
          (xy -5.08 5.08)
          (xy -5.08 0)
          (xy -1.27 2.54)
          (xy -5.08 5.08)
        )
        (stroke (width 0)) (fill (type none))
      )
      (polyline
        (pts
          (xy 5.08 0)
          (xy 5.08 -5.08)
          (xy 1.27 -2.54)
          (xy 5.08 0)
        )
        (stroke (width 0)) (fill (type none))
      )
      (pin power_in line (at -16.51 7.62 0) (length 2.54)
        (name "VDD1" (effects (font (size 1.27 1.27))))
        (number "1" (effects (font (size 1.27 1.27))))
      )
      (pin bidirectional line (at -16.51 2.54 0) (length 2.54)
        (name "SDA1" (effects (font (size 1.27 1.27))))
        (number "2" (effects (font (size 1.27 1.27))))
      )
      (pin bidirectional line (at -16.51 -2.54 0) (length 2.54)
        (name "SCL1" (effects (font (size 1.27 1.27))))
        (number "3" (effects (font (size 1.27 1.27))))
      )
      (pin power_in line (at -16.51 -7.62 0) (length 2.54)
        (name "GND1" (effects (font (size 1.27 1.27))))
        (number "4" (effects (font (size 1.27 1.27))))
      )
      (pin power_in line (at 16.51 -7.62 180) (length 2.54)
        (name "GND2" (effects (font (size 1.27 1.27))))
        (number "5" (effects (font (size 1.27 1.27))))
      )
      (pin bidirectional line (at 16.51 -2.54 180) (length 2.54)
        (name "SCL2" (effects (font (size 1.27 1.27))))
        (number "6" (effects (font (size 1.27 1.27))))
      )
      (pin bidirectional line (at 16.51 2.54 180) (length 2.54)
        (name "SDA2" (effects (font (size 1.27 1.27))))
        (number "7" (effects (font (size 1.27 1.27))))
      )
      (pin power_in line (at 16.51 7.62 180) (length 2.54)
        (name "VDD2" (effects (font (size 1.27 1.27))))
        (number "8" (effects (font (size 1.27 1.27))))
      )
    )
  )
  (symbol "ADuM125x" (pin_names (offset 1.016)) (in_bom yes) (on_board yes)
    (property "Reference" "U" (id 0) (at 12.7 11.43 0)
      (effects (font (size 1.27 1.27)))
    )
    (property "Value" "ADuM125x" (id 1) (at -8.89 11.43 0)
      (effects (font (size 1.27 1.27)))
    )
    (property "Footprint" "" (id 2) (at -16.51 20.32 0)
      (effects (font (size 1.27 1.27)) hide)
    )
    (property "Datasheet" "" (id 3) (at -16.51 20.32 0)
      (effects (font (size 1.27 1.27)) hide)
    )
  )
)
